<svg width="98" height="15" viewBox="0 0 98 15" fill="none" xmlns="http://www.w3.org/2000/svg">
<path d="M12 8C12 11.3137 9.31371 14 6 14C2.68629 14 0 11.3137 0 8C0 4.68629 2.68629 2 6 2C9.31371 2 12 4.68629 12 8Z" fill="#69A042"/>
<path d="M28.3088 10.116V13.692H26.1368V12H20.7608V13.692H18.5768V10.116H18.8768C19.3728 10.108 19.7208 9.768 19.9208 9.096C20.1288 8.424 20.2568 7.456 20.3048 6.192L20.4008 3.6H27.1688V10.116H28.3088ZM22.3808 6.396C22.3488 7.292 22.2768 8.052 22.1648 8.676C22.0528 9.3 21.8808 9.78 21.6488 10.116H24.8288V5.484H22.4168L22.3808 6.396ZM32.4818 12.108C31.7858 12.108 31.1578 11.964 30.5978 11.676C30.0378 11.388 29.5978 10.988 29.2778 10.476C28.9658 9.964 28.8098 9.384 28.8098 8.736C28.8098 8.096 28.9658 7.52 29.2778 7.008C29.5978 6.496 30.0338 6.1 30.5858 5.82C31.1458 5.532 31.7778 5.388 32.4818 5.388C33.1858 5.388 33.8178 5.532 34.3778 5.82C34.9378 6.1 35.3738 6.496 35.6858 7.008C35.9978 7.512 36.1538 8.088 36.1538 8.736C36.1538 9.384 35.9978 9.964 35.6858 10.476C35.3738 10.988 34.9378 11.388 34.3778 11.676C33.8178 11.964 33.1858 12.108 32.4818 12.108ZM32.4818 10.296C32.8818 10.296 33.2098 10.16 33.4658 9.888C33.7218 9.608 33.8498 9.224 33.8498 8.736C33.8498 8.256 33.7218 7.88 33.4658 7.608C33.2098 7.336 32.8818 7.2 32.4818 7.2C32.0818 7.2 31.7538 7.336 31.4978 7.608C31.2418 7.88 31.1138 8.256 31.1138 8.736C31.1138 9.224 31.2418 9.608 31.4978 9.888C31.7538 10.16 32.0818 10.296 32.4818 10.296ZM40.4871 12.108C39.7671 12.108 39.1231 11.964 38.5551 11.676C37.9871 11.388 37.5431 10.988 37.2231 10.476C36.9111 9.964 36.7551 9.384 36.7551 8.736C36.7551 8.088 36.9111 7.512 37.2231 7.008C37.5431 6.496 37.9871 6.1 38.5551 5.82C39.1231 5.532 39.7671 5.388 40.4871 5.388C41.2231 5.388 41.8591 5.548 42.3951 5.868C42.9311 6.18 43.3111 6.616 43.5351 7.176L41.7711 8.076C41.4751 7.492 41.0431 7.2 40.4751 7.2C40.0671 7.2 39.7271 7.336 39.4551 7.608C39.1911 7.88 39.0591 8.256 39.0591 8.736C39.0591 9.224 39.1911 9.608 39.4551 9.888C39.7271 10.16 40.0671 10.296 40.4751 10.296C41.0431 10.296 41.4751 10.004 41.7711 9.42L43.5351 10.32C43.3111 10.88 42.9311 11.32 42.3951 11.64C41.8591 11.952 41.2231 12.108 40.4871 12.108ZM50.3201 7.308H48.2321V12H45.9641V7.308H43.8641V5.496H50.3201V7.308ZM53.8555 5.388C54.9355 5.388 55.7595 5.636 56.3275 6.132C56.8955 6.62 57.1795 7.372 57.1795 8.388V12H55.0555V11.16C54.7275 11.792 54.0875 12.108 53.1355 12.108C52.6315 12.108 52.1955 12.02 51.8275 11.844C51.4595 11.668 51.1795 11.432 50.9875 11.136C50.8035 10.832 50.7115 10.488 50.7115 10.104C50.7115 9.488 50.9475 9.012 51.4195 8.676C51.8915 8.332 52.6195 8.16 53.6035 8.16H54.8995C54.8595 7.472 54.3995 7.128 53.5195 7.128C53.2075 7.128 52.8915 7.18 52.5715 7.284C52.2515 7.38 51.9795 7.516 51.7555 7.692L50.9875 6.144C51.3475 5.904 51.7835 5.72 52.2955 5.592C52.8155 5.456 53.3355 5.388 53.8555 5.388ZM53.7715 10.668C54.0355 10.668 54.2675 10.604 54.4675 10.476C54.6675 10.348 54.8115 10.16 54.8995 9.912V9.348H53.9155C53.2515 9.348 52.9195 9.568 52.9195 10.008C52.9195 10.208 52.9955 10.368 53.1475 10.488C53.2995 10.608 53.5075 10.668 53.7715 10.668ZM63.7952 8.592C64.5392 8.84 64.9112 9.352 64.9112 10.128C64.9112 10.712 64.6832 11.172 64.2272 11.508C63.7712 11.836 63.0992 12 62.2112 12H58.5512V5.496H62.0432C62.8912 5.496 63.5472 5.644 64.0112 5.94C64.4832 6.236 64.7192 6.652 64.7192 7.188C64.7192 7.5 64.6392 7.776 64.4792 8.016C64.3192 8.256 64.0912 8.448 63.7952 8.592ZM60.5912 8.112H61.8392C62.3672 8.112 62.6312 7.916 62.6312 7.524C62.6312 7.148 62.3672 6.96 61.8392 6.96H60.5912V8.112ZM62.0072 10.524C62.5592 10.524 62.8352 10.324 62.8352 9.924C62.8352 9.524 62.5672 9.324 62.0312 9.324H60.5912V10.524H62.0072ZM72.6869 5.496V12H70.4069V7.308H68.7629L68.7149 8.304C68.6829 9.152 68.5989 9.852 68.4629 10.404C68.3269 10.956 68.1029 11.388 67.7909 11.7C67.4789 12.004 67.0509 12.156 66.5069 12.156C66.2269 12.156 65.8589 12.104 65.4029 12L65.4989 10.14C65.6429 10.156 65.7389 10.164 65.7869 10.164C66.0349 10.164 66.2229 10.084 66.3509 9.924C66.4789 9.764 66.5669 9.552 66.6149 9.288C66.6629 9.016 66.6949 8.656 66.7109 8.208L66.8069 5.496H72.6869ZM80.8072 8.76C80.8072 8.776 80.7952 8.964 80.7712 9.324H76.0432C76.1392 9.66 76.3232 9.92 76.5952 10.104C76.8752 10.28 77.2232 10.368 77.6392 10.368C77.9512 10.368 78.2192 10.324 78.4432 10.236C78.6752 10.148 78.9072 10.004 79.1392 9.804L80.3392 11.052C79.7072 11.756 78.7832 12.108 77.5672 12.108C76.8072 12.108 76.1392 11.964 75.5632 11.676C74.9872 11.388 74.5392 10.988 74.2192 10.476C73.9072 9.964 73.7512 9.384 73.7512 8.736C73.7512 8.096 73.9032 7.524 74.2072 7.02C74.5192 6.508 74.9472 6.108 75.4912 5.82C76.0352 5.532 76.6472 5.388 77.3272 5.388C77.9752 5.388 78.5632 5.524 79.0912 5.796C79.6192 6.06 80.0352 6.448 80.3392 6.96C80.6512 7.464 80.8072 8.064 80.8072 8.76ZM77.3392 7.008C76.9872 7.008 76.6912 7.108 76.4512 7.308C76.2192 7.508 76.0712 7.78 76.0072 8.124H78.6712C78.6072 7.78 78.4552 7.508 78.2152 7.308C77.9832 7.108 77.6912 7.008 77.3392 7.008ZM82.0121 5.496H84.2801V7.908H86.6201V5.496H88.9001V12H86.6201V9.72H84.2801V12H82.0121V5.496ZM93.6419 12.108C92.9459 12.108 92.3179 11.964 91.7579 11.676C91.1979 11.388 90.7579 10.988 90.4379 10.476C90.1259 9.964 89.9699 9.384 89.9699 8.736C89.9699 8.096 90.1259 7.52 90.4379 7.008C90.7579 6.496 91.1939 6.1 91.7459 5.82C92.3059 5.532 92.9379 5.388 93.6419 5.388C94.3459 5.388 94.9779 5.532 95.5379 5.82C96.0979 6.1 96.5339 6.496 96.8459 7.008C97.1579 7.512 97.3139 8.088 97.3139 8.736C97.3139 9.384 97.1579 9.964 96.8459 10.476C96.5339 10.988 96.0979 11.388 95.5379 11.676C94.9779 11.964 94.3459 12.108 93.6419 12.108ZM93.6419 10.296C94.0419 10.296 94.3699 10.16 94.6259 9.888C94.8819 9.608 95.0099 9.224 95.0099 8.736C95.0099 8.256 94.8819 7.88 94.6259 7.608C94.3699 7.336 94.0419 7.2 93.6419 7.2C93.2419 7.2 92.9139 7.336 92.6579 7.608C92.4019 7.88 92.2739 8.256 92.2739 8.736C92.2739 9.224 92.4019 9.608 92.6579 9.888C92.9139 10.16 93.2419 10.296 93.6419 10.296Z" fill="#69A042"/>
</svg>
